1.139626926422119197e+02
2.317285003662109233e+01
1.872171678543090678e+01
1.704755571365356559e+01
1.602786664009094153e+01
1.474117811203002937e+01
1.387582701683044384e+01
1.296487792015075691e+01
1.225852181434631305e+01
1.155983081817626967e+01
1.099865742683410730e+01
1.051809664726257409e+01
1.016433221817016630e+01
9.812995691299438050e+00
9.546143169403075390e+00
9.300211739540099387e+00
9.091768789291382546e+00
8.879380726814270375e+00
8.851025695800780468e+00
8.602078046798705913e+00
8.490280265808104687e+00
8.456707854270934632e+00
8.397006936073303507e+00
8.356748600006103089e+00
7.960241961479186834e+00
7.839278774261474680e+00
7.802327060699463246e+00
7.809032454490661301e+00
7.717038912773132253e+00
7.675708293914794922e+00
7.683976402282715057e+00
7.589829444885253906e+00
7.622109980583190669e+00
7.559657869338988867e+00
7.568333292007446644e+00
7.476096601486205806e+00
7.469178590774536275e+00
7.450178632736205842e+00
7.436957125663757218e+00
7.242280664443970117e+00
7.189914951324462677e+00
7.147741994857788050e+00
7.065999054908752797e+00
7.082123904228210698e+00
7.077861852645874308e+00
7.059631719589233079e+00
7.040533313751220490e+00
7.085755791664123393e+00
6.985641746520996342e+00
6.939653205871581854e+00
