3.605684394836426065e+01
1.958353626251220803e+01
2.351883127212524371e+01
1.851840450286865192e+01
1.505428007125854428e+01
1.443548221588134695e+01
1.274179866790771420e+01
1.211885103225707994e+01
1.170252355575561509e+01
1.090421009063720703e+01
1.045574846267700231e+01
1.068861646652221609e+01
9.819214649200439737e+00
9.761370029449462749e+00
9.588253402709961293e+00
9.173949594497679882e+00
1.024112487792968729e+01
9.468007965087890554e+00
9.416871547698974609e+00
8.808203287124634073e+00
8.645782108306883984e+00
8.849930553436278657e+00
8.493497400283812837e+00
8.632935113906860636e+00
8.472050971984863565e+00
8.397317304611206623e+00
8.546325149536132315e+00
8.282468271255492454e+00
8.160438175201415234e+00
8.485535755157471272e+00
8.510241537094115571e+00
8.361449155807495259e+00
8.183938512802123810e+00
8.173638687133788494e+00
8.312364044189452628e+00
8.031675968170166158e+00
8.037799921035766459e+00
7.896150722503661790e+00
7.862138252258301208e+00
7.968190803527831712e+00
7.809450149536132812e+00
7.944834175109863672e+00
7.872262907028198420e+00
7.871390819549560547e+00
7.956714076995849538e+00
7.848877820968628072e+00
7.749768991470336488e+00
7.750654706954955842e+00
7.758837442398071715e+00
7.761475019454955770e+00
